["SELECT DISTINCT(page_entries.ip), i.city, i.state, COUNT(page_entries.id) as times, origin, value_str, s.first_name, s.last_name, page_entries.added, browser, referer FROM page_entries
INNER JOIN %prefix%alr_sellers AS s ON s.author_id = CAST(value_str AS UNSIGNED)
INNER JOIN %prefix%alr_ip_list AS i ON i.ip = page_entries.ip
GROUP BY value_str, ip, browser
ORDER BY `page_entries`.`added`  DESC"]